G04 #@! TF.GenerationSoftware,KiCad,Pcbnew,5.0.2-bee76a0~70~ubuntu18.04.1*
G04 #@! TF.CreationDate,2019-02-25T13:50:55-08:00*
G04 #@! TF.ProjectId,main,6d61696e-2e6b-4696-9361-645f70636258,1.0*
G04 #@! TF.SameCoordinates,Original*
G04 #@! TF.FileFunction,Copper,L1,Top*
G04 #@! TF.FilePolarity,Positive*
%FSLAX46Y46*%
G04 Gerber Fmt 4.6, Leading zero omitted, Abs format (unit mm)*
G04 Created by KiCad (PCBNEW 5.0.2-bee76a0~70~ubuntu18.04.1) date Mon 25 Feb 2019 01:50:55 PM PST*
%MOMM*%
%LPD*%
G01*
G04 APERTURE LIST*
G04 #@! TA.AperFunction,Conductor*
%ADD10R,1.800000X1.800000*%
G04 #@! TD*
G04 #@! TA.AperFunction,ViaPad*
%ADD11C,0.600000*%
G04 #@! TD*
G04 #@! TA.AperFunction,SMDPad,CuDef*
%ADD12R,5.000000X5.000000*%
G04 #@! TD*
G04 #@! TA.AperFunction,SMDPad,CuDef*
%ADD13R,2.000000X0.900000*%
G04 #@! TD*
G04 #@! TA.AperFunction,SMDPad,CuDef*
%ADD14R,0.900000X2.000000*%
G04 #@! TD*
G04 #@! TA.AperFunction,ViaPad*
%ADD15C,0.800000*%
G04 #@! TD*
G04 #@! TA.AperFunction,Conductor*
%ADD16C,0.250000*%
G04 #@! TD*
G04 #@! TA.AperFunction,Conductor*
%ADD17C,0.254000*%
G04 #@! TD*
G04 APERTURE END LIST*
D10*
G04 #@! TO.N,GND*
G04 #@! TO.C,U103*
X149000000Y-97500000D03*
D11*
X149000000Y-97500000D03*
X148500000Y-98000000D03*
X149500000Y-98000000D03*
X149500000Y-97000000D03*
X148500000Y-97000000D03*
G04 #@! TD*
D12*
G04 #@! TO.P,U101,39*
G04 #@! TO.N,N/C*
X145050000Y-103385000D03*
D13*
G04 #@! TO.P,U101,1*
G04 #@! TO.N,GND*
X137550000Y-95885000D03*
G04 #@! TO.P,U101,2*
G04 #@! TO.N,VDD*
X137550000Y-97155000D03*
G04 #@! TO.P,U101,3*
G04 #@! TO.N,/EN*
X137550000Y-98425000D03*
G04 #@! TO.P,U101,4*
G04 #@! TO.N,/P4*
X137550000Y-99695000D03*
G04 #@! TO.P,U101,5*
G04 #@! TO.N,/P5*
X137550000Y-100965000D03*
G04 #@! TO.P,U101,6*
G04 #@! TO.N,/P6*
X137550000Y-102235000D03*
G04 #@! TO.P,U101,7*
G04 #@! TO.N,/P7*
X137550000Y-103505000D03*
G04 #@! TO.P,U101,8*
G04 #@! TO.N,/P8*
X137550000Y-104775000D03*
G04 #@! TO.P,U101,9*
G04 #@! TO.N,/P9*
X137550000Y-106045000D03*
G04 #@! TO.P,U101,10*
G04 #@! TO.N,/P10*
X137550000Y-107315000D03*
G04 #@! TO.P,U101,11*
G04 #@! TO.N,/P11*
X137550000Y-108585000D03*
G04 #@! TO.P,U101,12*
G04 #@! TO.N,/P12*
X137550000Y-109855000D03*
G04 #@! TO.P,U101,13*
G04 #@! TO.N,/LED_DATA*
X137550000Y-111125000D03*
G04 #@! TO.P,U101,14*
G04 #@! TO.N,/P14*
X137550000Y-112395000D03*
D14*
G04 #@! TO.P,U101,15*
G04 #@! TO.N,GND*
X140335000Y-113395000D03*
G04 #@! TO.P,U101,16*
G04 #@! TO.N,/P16*
X141605000Y-113395000D03*
G04 #@! TO.P,U101,17*
G04 #@! TO.N,/P17*
X142875000Y-113395000D03*
G04 #@! TO.P,U101,18*
G04 #@! TO.N,/P18*
X144145000Y-113395000D03*
G04 #@! TO.P,U101,19*
G04 #@! TO.N,/P19*
X145415000Y-113395000D03*
G04 #@! TO.P,U101,20*
G04 #@! TO.N,/P20*
X146685000Y-113395000D03*
G04 #@! TO.P,U101,21*
G04 #@! TO.N,/P21*
X147955000Y-113395000D03*
G04 #@! TO.P,U101,22*
G04 #@! TO.N,/P22*
X149225000Y-113395000D03*
G04 #@! TO.P,U101,23*
G04 #@! TO.N,/P23*
X150495000Y-113395000D03*
G04 #@! TO.P,U101,24*
G04 #@! TO.N,/P24*
X151765000Y-113395000D03*
D13*
G04 #@! TO.P,U101,25*
G04 #@! TO.N,/0*
X154550000Y-112395000D03*
G04 #@! TO.P,U101,26*
G04 #@! TO.N,/P26*
X154550000Y-111125000D03*
G04 #@! TO.P,U101,27*
G04 #@! TO.N,/P27*
X154550000Y-109855000D03*
G04 #@! TO.P,U101,28*
G04 #@! TO.N,/P28*
X154550000Y-108585000D03*
G04 #@! TO.P,U101,29*
G04 #@! TO.N,/P29*
X154550000Y-107315000D03*
G04 #@! TO.P,U101,30*
G04 #@! TO.N,/DIN*
X154550000Y-106045000D03*
G04 #@! TO.P,U101,31*
G04 #@! TO.N,/BCLK*
X154550000Y-104775000D03*
G04 #@! TO.P,U101,32*
G04 #@! TO.N,Net-(U101-Pad32)*
X154550000Y-103505000D03*
G04 #@! TO.P,U101,33*
G04 #@! TO.N,/LRCLK*
X154550000Y-102235000D03*
G04 #@! TO.P,U101,34*
G04 #@! TO.N,/P34*
X154550000Y-100965000D03*
G04 #@! TO.P,U101,35*
G04 #@! TO.N,/P35*
X154550000Y-99695000D03*
G04 #@! TO.P,U101,36*
G04 #@! TO.N,/P36*
X154550000Y-98425000D03*
G04 #@! TO.P,U101,37*
G04 #@! TO.N,/P37*
X154550000Y-97155000D03*
G04 #@! TO.P,U101,38*
G04 #@! TO.N,GND*
X154550000Y-95885000D03*
G04 #@! TD*
D15*
G04 #@! TO.N,GND*
X145750000Y-97750013D03*
X139600000Y-111400000D03*
X139240000Y-95885000D03*
X152146000Y-95250000D03*
X148650000Y-107400000D03*
X143700000Y-106900000D03*
X139950000Y-109400000D03*
X151500000Y-104750000D03*
G04 #@! TO.N,VDD*
X139300000Y-97180000D03*
X141224000Y-96774000D03*
X146304000Y-96520000D03*
X146300000Y-106900000D03*
X141050000Y-105750000D03*
X150162660Y-103937340D03*
X139565680Y-103134387D03*
G04 #@! TO.N,/0*
X153050000Y-112450000D03*
G04 #@! TO.N,/VBATT*
X152150000Y-110100000D03*
X144500000Y-110950000D03*
X144780000Y-95758000D03*
X149250000Y-95100000D03*
X150250000Y-95000000D03*
G04 #@! TO.N,/EN*
X139000000Y-98450000D03*
G04 #@! TO.N,/P8*
X139174990Y-104763993D03*
G04 #@! TO.N,/P9*
X139249996Y-106045000D03*
G04 #@! TO.N,/P34*
X150500000Y-102600000D03*
G04 #@! TO.N,/P35*
X150424990Y-101400009D03*
G04 #@! TO.N,/LED_DATA*
X141250000Y-111300000D03*
G04 #@! TO.N,/LRCLK*
X152914231Y-102229808D03*
G04 #@! TO.N,/BCLK*
X152468539Y-103429109D03*
G04 #@! TO.N,/DIN*
X151548100Y-103038193D03*
G04 #@! TD*
D16*
G04 #@! TO.N,GND*
X140335000Y-112135000D02*
X139600000Y-111400000D01*
X140335000Y-113395000D02*
X140335000Y-112135000D01*
X137550000Y-95885000D02*
X139240000Y-95885000D01*
X154550000Y-95885000D02*
X152781000Y-95885000D01*
X152781000Y-95885000D02*
X152146000Y-95250000D01*
G04 #@! TO.N,VDD*
X139275000Y-97155000D02*
X139300000Y-97180000D01*
X137550000Y-97155000D02*
X139275000Y-97155000D01*
G04 #@! TO.N,/0*
X154495000Y-112450000D02*
X154550000Y-112395000D01*
X153050000Y-112450000D02*
X154495000Y-112450000D01*
G04 #@! TO.N,/EN*
X137575000Y-98450000D02*
X137550000Y-98425000D01*
X139000000Y-98450000D02*
X137575000Y-98450000D01*
G04 #@! TO.N,/P8*
X137550000Y-104775000D02*
X139163983Y-104775000D01*
X139163983Y-104775000D02*
X139174990Y-104763993D01*
G04 #@! TO.N,/P9*
X137550000Y-106045000D02*
X139249996Y-106045000D01*
G04 #@! TO.N,/P34*
X154550000Y-100965000D02*
X152335000Y-100965000D01*
X150700000Y-102600000D02*
X150500000Y-102600000D01*
X152335000Y-100965000D02*
X150700000Y-102600000D01*
G04 #@! TO.N,/P35*
X152129999Y-99695000D02*
X150824989Y-101000010D01*
X150824989Y-101000010D02*
X150424990Y-101400009D01*
X154550000Y-99695000D02*
X152129999Y-99695000D01*
G04 #@! TO.N,/LED_DATA*
X140624998Y-110674998D02*
X140850001Y-110900001D01*
X140850001Y-110900001D02*
X141250000Y-111300000D01*
X139250002Y-110674998D02*
X140624998Y-110674998D01*
X138800000Y-111125000D02*
X139250002Y-110674998D01*
X137550000Y-111125000D02*
X138800000Y-111125000D01*
G04 #@! TO.N,/LRCLK*
X152919423Y-102235000D02*
X152914231Y-102229808D01*
X154550000Y-102235000D02*
X152919423Y-102235000D01*
G04 #@! TO.N,/BCLK*
X152468539Y-103943539D02*
X152468539Y-103429109D01*
X154550000Y-104775000D02*
X153300000Y-104775000D01*
X153300000Y-104775000D02*
X152468539Y-103943539D01*
G04 #@! TO.N,/DIN*
X151548100Y-103603878D02*
X151548100Y-103038193D01*
X151548100Y-103725098D02*
X151548100Y-103603878D01*
X154550000Y-106045000D02*
X153868002Y-106045000D01*
X153868002Y-106045000D02*
X151548100Y-103725098D01*
G04 #@! TD*
D17*
G04 #@! TO.N,/VBATT*
G36*
X151111000Y-95044126D02*
X151111000Y-95455874D01*
X151268569Y-95836280D01*
X151559720Y-96127431D01*
X151940126Y-96285000D01*
X152106198Y-96285000D01*
X152190671Y-96369473D01*
X152233071Y-96432929D01*
X152484463Y-96600904D01*
X152706148Y-96645000D01*
X152706152Y-96645000D01*
X152781000Y-96659888D01*
X152855848Y-96645000D01*
X152914495Y-96645000D01*
X152902560Y-96705000D01*
X152902560Y-97605000D01*
X152939358Y-97790000D01*
X152902560Y-97975000D01*
X152902560Y-98875000D01*
X152914495Y-98935000D01*
X152204847Y-98935000D01*
X152129999Y-98920112D01*
X152055151Y-98935000D01*
X152055147Y-98935000D01*
X151881604Y-98969520D01*
X151833461Y-98979096D01*
X151747880Y-99036280D01*
X151582070Y-99147071D01*
X151539670Y-99210527D01*
X150385189Y-100365009D01*
X150219116Y-100365009D01*
X149838710Y-100522578D01*
X149547559Y-100813729D01*
X149389990Y-101194135D01*
X149389990Y-101605883D01*
X149547559Y-101986289D01*
X149608633Y-102047363D01*
X149465000Y-102394126D01*
X149465000Y-102805874D01*
X149572027Y-103064262D01*
X149285229Y-103351060D01*
X149127660Y-103731466D01*
X149127660Y-104143214D01*
X149285229Y-104523620D01*
X149576380Y-104814771D01*
X149956786Y-104972340D01*
X150368534Y-104972340D01*
X150465000Y-104932383D01*
X150465000Y-104955874D01*
X150622569Y-105336280D01*
X150913720Y-105627431D01*
X151294126Y-105785000D01*
X151705874Y-105785000D01*
X152086280Y-105627431D01*
X152230956Y-105482755D01*
X152902560Y-106154360D01*
X152902560Y-106495000D01*
X152939358Y-106680000D01*
X152902560Y-106865000D01*
X152902560Y-107765000D01*
X152939358Y-107950000D01*
X152902560Y-108135000D01*
X152902560Y-109035000D01*
X152939358Y-109220000D01*
X152902560Y-109405000D01*
X152902560Y-110305000D01*
X152939358Y-110490000D01*
X152902560Y-110675000D01*
X152902560Y-111415000D01*
X152844126Y-111415000D01*
X152463720Y-111572569D01*
X152276497Y-111759792D01*
X152215000Y-111747560D01*
X151315000Y-111747560D01*
X151130000Y-111784358D01*
X150945000Y-111747560D01*
X150045000Y-111747560D01*
X149860000Y-111784358D01*
X149675000Y-111747560D01*
X148775000Y-111747560D01*
X148590000Y-111784358D01*
X148405000Y-111747560D01*
X147505000Y-111747560D01*
X147320000Y-111784358D01*
X147135000Y-111747560D01*
X146235000Y-111747560D01*
X146050000Y-111784358D01*
X145865000Y-111747560D01*
X144965000Y-111747560D01*
X144780000Y-111784358D01*
X144595000Y-111747560D01*
X143695000Y-111747560D01*
X143510000Y-111784358D01*
X143325000Y-111747560D01*
X142425000Y-111747560D01*
X142240000Y-111784358D01*
X142175003Y-111771430D01*
X142285000Y-111505874D01*
X142285000Y-111094126D01*
X142127431Y-110713720D01*
X141836280Y-110422569D01*
X141455874Y-110265000D01*
X141289802Y-110265000D01*
X141215328Y-110190527D01*
X141172927Y-110127069D01*
X140921535Y-109959094D01*
X140844998Y-109943870D01*
X140985000Y-109605874D01*
X140985000Y-109194126D01*
X140827431Y-108813720D01*
X140536280Y-108522569D01*
X140155874Y-108365000D01*
X139744126Y-108365000D01*
X139363720Y-108522569D01*
X139197440Y-108688849D01*
X139197440Y-108135000D01*
X139160642Y-107950000D01*
X139197440Y-107765000D01*
X139197440Y-107080000D01*
X139455870Y-107080000D01*
X139836276Y-106922431D01*
X140127427Y-106631280D01*
X140227052Y-106390763D01*
X140463720Y-106627431D01*
X140844126Y-106785000D01*
X141255874Y-106785000D01*
X141636280Y-106627431D01*
X141927431Y-106336280D01*
X141988812Y-106188093D01*
X142092191Y-106342809D01*
X142302235Y-106483157D01*
X142550000Y-106532440D01*
X142731972Y-106532440D01*
X142665000Y-106694126D01*
X142665000Y-107105874D01*
X142822569Y-107486280D01*
X143113720Y-107777431D01*
X143494126Y-107935000D01*
X143905874Y-107935000D01*
X144286280Y-107777431D01*
X144577431Y-107486280D01*
X144735000Y-107105874D01*
X144735000Y-106694126D01*
X144668028Y-106532440D01*
X145331972Y-106532440D01*
X145265000Y-106694126D01*
X145265000Y-107105874D01*
X145422569Y-107486280D01*
X145713720Y-107777431D01*
X146094126Y-107935000D01*
X146505874Y-107935000D01*
X146886280Y-107777431D01*
X147177431Y-107486280D01*
X147298444Y-107194126D01*
X147615000Y-107194126D01*
X147615000Y-107605874D01*
X147772569Y-107986280D01*
X148063720Y-108277431D01*
X148444126Y-108435000D01*
X148855874Y-108435000D01*
X149236280Y-108277431D01*
X149527431Y-107986280D01*
X149685000Y-107605874D01*
X149685000Y-107194126D01*
X149527431Y-106813720D01*
X149236280Y-106522569D01*
X148855874Y-106365000D01*
X148444126Y-106365000D01*
X148063720Y-106522569D01*
X147772569Y-106813720D01*
X147615000Y-107194126D01*
X147298444Y-107194126D01*
X147335000Y-107105874D01*
X147335000Y-106694126D01*
X147268028Y-106532440D01*
X147550000Y-106532440D01*
X147797765Y-106483157D01*
X148007809Y-106342809D01*
X148148157Y-106132765D01*
X148197440Y-105885000D01*
X148197440Y-100885000D01*
X148148157Y-100637235D01*
X148007809Y-100427191D01*
X147797765Y-100286843D01*
X147550000Y-100237560D01*
X142550000Y-100237560D01*
X142302235Y-100286843D01*
X142092191Y-100427191D01*
X141951843Y-100637235D01*
X141902560Y-100885000D01*
X141902560Y-105138849D01*
X141636280Y-104872569D01*
X141255874Y-104715000D01*
X140844126Y-104715000D01*
X140463720Y-104872569D01*
X140172569Y-105163720D01*
X140072944Y-105404237D01*
X140035701Y-105366994D01*
X140052421Y-105350273D01*
X140209990Y-104969867D01*
X140209990Y-104558119D01*
X140052421Y-104177713D01*
X139964270Y-104089562D01*
X140151960Y-104011818D01*
X140443111Y-103720667D01*
X140600680Y-103340261D01*
X140600680Y-102928513D01*
X140443111Y-102548107D01*
X140151960Y-102256956D01*
X139771554Y-102099387D01*
X139359806Y-102099387D01*
X139197440Y-102166641D01*
X139197440Y-101785000D01*
X139160642Y-101600000D01*
X139197440Y-101415000D01*
X139197440Y-100515000D01*
X139160642Y-100330000D01*
X139197440Y-100145000D01*
X139197440Y-99485000D01*
X139205874Y-99485000D01*
X139586280Y-99327431D01*
X139877431Y-99036280D01*
X140035000Y-98655874D01*
X140035000Y-98244126D01*
X139936759Y-98006952D01*
X140177431Y-97766280D01*
X140335000Y-97385874D01*
X140335000Y-97332350D01*
X140346569Y-97360280D01*
X140637720Y-97651431D01*
X141018126Y-97809000D01*
X141429874Y-97809000D01*
X141810280Y-97651431D01*
X141917572Y-97544139D01*
X144715000Y-97544139D01*
X144715000Y-97955887D01*
X144872569Y-98336293D01*
X145163720Y-98627444D01*
X145544126Y-98785013D01*
X145955874Y-98785013D01*
X146336280Y-98627444D01*
X146627431Y-98336293D01*
X146785000Y-97955887D01*
X146785000Y-97544139D01*
X146748549Y-97456138D01*
X146890280Y-97397431D01*
X147181431Y-97106280D01*
X147339000Y-96725874D01*
X147339000Y-96600000D01*
X147452560Y-96600000D01*
X147452560Y-98400000D01*
X147501843Y-98647765D01*
X147642191Y-98857809D01*
X147852235Y-98998157D01*
X148100000Y-99047440D01*
X149900000Y-99047440D01*
X150147765Y-98998157D01*
X150357809Y-98857809D01*
X150498157Y-98647765D01*
X150547440Y-98400000D01*
X150547440Y-96600000D01*
X150498157Y-96352235D01*
X150357809Y-96142191D01*
X150147765Y-96001843D01*
X149900000Y-95952560D01*
X148100000Y-95952560D01*
X147852235Y-96001843D01*
X147642191Y-96142191D01*
X147501843Y-96352235D01*
X147452560Y-96600000D01*
X147339000Y-96600000D01*
X147339000Y-96314126D01*
X147181431Y-95933720D01*
X146890280Y-95642569D01*
X146509874Y-95485000D01*
X146098126Y-95485000D01*
X145717720Y-95642569D01*
X145426569Y-95933720D01*
X145269000Y-96314126D01*
X145269000Y-96725874D01*
X145305451Y-96813875D01*
X145163720Y-96872582D01*
X144872569Y-97163733D01*
X144715000Y-97544139D01*
X141917572Y-97544139D01*
X142101431Y-97360280D01*
X142259000Y-96979874D01*
X142259000Y-96568126D01*
X142101431Y-96187720D01*
X141810280Y-95896569D01*
X141429874Y-95739000D01*
X141018126Y-95739000D01*
X140637720Y-95896569D01*
X140346569Y-96187720D01*
X140189000Y-96568126D01*
X140189000Y-96621650D01*
X140177431Y-96593720D01*
X140086211Y-96502500D01*
X140117431Y-96471280D01*
X140275000Y-96090874D01*
X140275000Y-95679126D01*
X140117431Y-95298720D01*
X139826280Y-95007569D01*
X139445874Y-94850000D01*
X139034126Y-94850000D01*
X138900371Y-94905403D01*
X138797765Y-94836843D01*
X138550000Y-94787560D01*
X136625000Y-94787560D01*
X136625000Y-94715000D01*
X151247328Y-94715000D01*
X151111000Y-95044126D01*
X151111000Y-95044126D01*
G37*
X151111000Y-95044126D02*
X151111000Y-95455874D01*
X151268569Y-95836280D01*
X151559720Y-96127431D01*
X151940126Y-96285000D01*
X152106198Y-96285000D01*
X152190671Y-96369473D01*
X152233071Y-96432929D01*
X152484463Y-96600904D01*
X152706148Y-96645000D01*
X152706152Y-96645000D01*
X152781000Y-96659888D01*
X152855848Y-96645000D01*
X152914495Y-96645000D01*
X152902560Y-96705000D01*
X152902560Y-97605000D01*
X152939358Y-97790000D01*
X152902560Y-97975000D01*
X152902560Y-98875000D01*
X152914495Y-98935000D01*
X152204847Y-98935000D01*
X152129999Y-98920112D01*
X152055151Y-98935000D01*
X152055147Y-98935000D01*
X151881604Y-98969520D01*
X151833461Y-98979096D01*
X151747880Y-99036280D01*
X151582070Y-99147071D01*
X151539670Y-99210527D01*
X150385189Y-100365009D01*
X150219116Y-100365009D01*
X149838710Y-100522578D01*
X149547559Y-100813729D01*
X149389990Y-101194135D01*
X149389990Y-101605883D01*
X149547559Y-101986289D01*
X149608633Y-102047363D01*
X149465000Y-102394126D01*
X149465000Y-102805874D01*
X149572027Y-103064262D01*
X149285229Y-103351060D01*
X149127660Y-103731466D01*
X149127660Y-104143214D01*
X149285229Y-104523620D01*
X149576380Y-104814771D01*
X149956786Y-104972340D01*
X150368534Y-104972340D01*
X150465000Y-104932383D01*
X150465000Y-104955874D01*
X150622569Y-105336280D01*
X150913720Y-105627431D01*
X151294126Y-105785000D01*
X151705874Y-105785000D01*
X152086280Y-105627431D01*
X152230956Y-105482755D01*
X152902560Y-106154360D01*
X152902560Y-106495000D01*
X152939358Y-106680000D01*
X152902560Y-106865000D01*
X152902560Y-107765000D01*
X152939358Y-107950000D01*
X152902560Y-108135000D01*
X152902560Y-109035000D01*
X152939358Y-109220000D01*
X152902560Y-109405000D01*
X152902560Y-110305000D01*
X152939358Y-110490000D01*
X152902560Y-110675000D01*
X152902560Y-111415000D01*
X152844126Y-111415000D01*
X152463720Y-111572569D01*
X152276497Y-111759792D01*
X152215000Y-111747560D01*
X151315000Y-111747560D01*
X151130000Y-111784358D01*
X150945000Y-111747560D01*
X150045000Y-111747560D01*
X149860000Y-111784358D01*
X149675000Y-111747560D01*
X148775000Y-111747560D01*
X148590000Y-111784358D01*
X148405000Y-111747560D01*
X147505000Y-111747560D01*
X147320000Y-111784358D01*
X147135000Y-111747560D01*
X146235000Y-111747560D01*
X146050000Y-111784358D01*
X145865000Y-111747560D01*
X144965000Y-111747560D01*
X144780000Y-111784358D01*
X144595000Y-111747560D01*
X143695000Y-111747560D01*
X143510000Y-111784358D01*
X143325000Y-111747560D01*
X142425000Y-111747560D01*
X142240000Y-111784358D01*
X142175003Y-111771430D01*
X142285000Y-111505874D01*
X142285000Y-111094126D01*
X142127431Y-110713720D01*
X141836280Y-110422569D01*
X141455874Y-110265000D01*
X141289802Y-110265000D01*
X141215328Y-110190527D01*
X141172927Y-110127069D01*
X140921535Y-109959094D01*
X140844998Y-109943870D01*
X140985000Y-109605874D01*
X140985000Y-109194126D01*
X140827431Y-108813720D01*
X140536280Y-108522569D01*
X140155874Y-108365000D01*
X139744126Y-108365000D01*
X139363720Y-108522569D01*
X139197440Y-108688849D01*
X139197440Y-108135000D01*
X139160642Y-107950000D01*
X139197440Y-107765000D01*
X139197440Y-107080000D01*
X139455870Y-107080000D01*
X139836276Y-106922431D01*
X140127427Y-106631280D01*
X140227052Y-106390763D01*
X140463720Y-106627431D01*
X140844126Y-106785000D01*
X141255874Y-106785000D01*
X141636280Y-106627431D01*
X141927431Y-106336280D01*
X141988812Y-106188093D01*
X142092191Y-106342809D01*
X142302235Y-106483157D01*
X142550000Y-106532440D01*
X142731972Y-106532440D01*
X142665000Y-106694126D01*
X142665000Y-107105874D01*
X142822569Y-107486280D01*
X143113720Y-107777431D01*
X143494126Y-107935000D01*
X143905874Y-107935000D01*
X144286280Y-107777431D01*
X144577431Y-107486280D01*
X144735000Y-107105874D01*
X144735000Y-106694126D01*
X144668028Y-106532440D01*
X145331972Y-106532440D01*
X145265000Y-106694126D01*
X145265000Y-107105874D01*
X145422569Y-107486280D01*
X145713720Y-107777431D01*
X146094126Y-107935000D01*
X146505874Y-107935000D01*
X146886280Y-107777431D01*
X147177431Y-107486280D01*
X147298444Y-107194126D01*
X147615000Y-107194126D01*
X147615000Y-107605874D01*
X147772569Y-107986280D01*
X148063720Y-108277431D01*
X148444126Y-108435000D01*
X148855874Y-108435000D01*
X149236280Y-108277431D01*
X149527431Y-107986280D01*
X149685000Y-107605874D01*
X149685000Y-107194126D01*
X149527431Y-106813720D01*
X149236280Y-106522569D01*
X148855874Y-106365000D01*
X148444126Y-106365000D01*
X148063720Y-106522569D01*
X147772569Y-106813720D01*
X147615000Y-107194126D01*
X147298444Y-107194126D01*
X147335000Y-107105874D01*
X147335000Y-106694126D01*
X147268028Y-106532440D01*
X147550000Y-106532440D01*
X147797765Y-106483157D01*
X148007809Y-106342809D01*
X148148157Y-106132765D01*
X148197440Y-105885000D01*
X148197440Y-100885000D01*
X148148157Y-100637235D01*
X148007809Y-100427191D01*
X147797765Y-100286843D01*
X147550000Y-100237560D01*
X142550000Y-100237560D01*
X142302235Y-100286843D01*
X142092191Y-100427191D01*
X141951843Y-100637235D01*
X141902560Y-100885000D01*
X141902560Y-105138849D01*
X141636280Y-104872569D01*
X141255874Y-104715000D01*
X140844126Y-104715000D01*
X140463720Y-104872569D01*
X140172569Y-105163720D01*
X140072944Y-105404237D01*
X140035701Y-105366994D01*
X140052421Y-105350273D01*
X140209990Y-104969867D01*
X140209990Y-104558119D01*
X140052421Y-104177713D01*
X139964270Y-104089562D01*
X140151960Y-104011818D01*
X140443111Y-103720667D01*
X140600680Y-103340261D01*
X140600680Y-102928513D01*
X140443111Y-102548107D01*
X140151960Y-102256956D01*
X139771554Y-102099387D01*
X139359806Y-102099387D01*
X139197440Y-102166641D01*
X139197440Y-101785000D01*
X139160642Y-101600000D01*
X139197440Y-101415000D01*
X139197440Y-100515000D01*
X139160642Y-100330000D01*
X139197440Y-100145000D01*
X139197440Y-99485000D01*
X139205874Y-99485000D01*
X139586280Y-99327431D01*
X139877431Y-99036280D01*
X140035000Y-98655874D01*
X140035000Y-98244126D01*
X139936759Y-98006952D01*
X140177431Y-97766280D01*
X140335000Y-97385874D01*
X140335000Y-97332350D01*
X140346569Y-97360280D01*
X140637720Y-97651431D01*
X141018126Y-97809000D01*
X141429874Y-97809000D01*
X141810280Y-97651431D01*
X141917572Y-97544139D01*
X144715000Y-97544139D01*
X144715000Y-97955887D01*
X144872569Y-98336293D01*
X145163720Y-98627444D01*
X145544126Y-98785013D01*
X145955874Y-98785013D01*
X146336280Y-98627444D01*
X146627431Y-98336293D01*
X146785000Y-97955887D01*
X146785000Y-97544139D01*
X146748549Y-97456138D01*
X146890280Y-97397431D01*
X147181431Y-97106280D01*
X147339000Y-96725874D01*
X147339000Y-96600000D01*
X147452560Y-96600000D01*
X147452560Y-98400000D01*
X147501843Y-98647765D01*
X147642191Y-98857809D01*
X147852235Y-98998157D01*
X148100000Y-99047440D01*
X149900000Y-99047440D01*
X150147765Y-98998157D01*
X150357809Y-98857809D01*
X150498157Y-98647765D01*
X150547440Y-98400000D01*
X150547440Y-96600000D01*
X150498157Y-96352235D01*
X150357809Y-96142191D01*
X150147765Y-96001843D01*
X149900000Y-95952560D01*
X148100000Y-95952560D01*
X147852235Y-96001843D01*
X147642191Y-96142191D01*
X147501843Y-96352235D01*
X147452560Y-96600000D01*
X147339000Y-96600000D01*
X147339000Y-96314126D01*
X147181431Y-95933720D01*
X146890280Y-95642569D01*
X146509874Y-95485000D01*
X146098126Y-95485000D01*
X145717720Y-95642569D01*
X145426569Y-95933720D01*
X145269000Y-96314126D01*
X145269000Y-96725874D01*
X145305451Y-96813875D01*
X145163720Y-96872582D01*
X144872569Y-97163733D01*
X144715000Y-97544139D01*
X141917572Y-97544139D01*
X142101431Y-97360280D01*
X142259000Y-96979874D01*
X142259000Y-96568126D01*
X142101431Y-96187720D01*
X141810280Y-95896569D01*
X141429874Y-95739000D01*
X141018126Y-95739000D01*
X140637720Y-95896569D01*
X140346569Y-96187720D01*
X140189000Y-96568126D01*
X140189000Y-96621650D01*
X140177431Y-96593720D01*
X140086211Y-96502500D01*
X140117431Y-96471280D01*
X140275000Y-96090874D01*
X140275000Y-95679126D01*
X140117431Y-95298720D01*
X139826280Y-95007569D01*
X139445874Y-94850000D01*
X139034126Y-94850000D01*
X138900371Y-94905403D01*
X138797765Y-94836843D01*
X138550000Y-94787560D01*
X136625000Y-94787560D01*
X136625000Y-94715000D01*
X151247328Y-94715000D01*
X151111000Y-95044126D01*
G04 #@! TD*
M02*
